module udemy-exo/dictionnary

go 1.20

require (
	github.com/cespare/xxhash/v2 v2.1.2 // indirect
	github.com/dgraph-io/badger/v4 v4.1.0 // indirect
	github.com/dgraph-io/ristretto v0.1.1 // indirect
	github.com/dustin/go-humanize v1.0.0 // indirect
	github.com/gogo/protobuf v1.3.2 // indirect
	github.com/golang/glog v0.0.0-20160126235308-23def4e6c14b // indirect
	github.com/golang/groupcache v0.0.0-20190702054246-869f871628b6 // indirect
	github.com/golang/protobuf v1.3.1 // indirect
	github.com/golang/snappy v0.0.3 // indirect
	github.com/google/flatbuffers v1.12.1 // indirect
	github.com/klauspost/compress v1.12.3 // indirect
	github.com/pkg/errors v0.9.1 // indirect
	go.opencensus.io v0.22.5 // indirect
	golang.org/x/net v0.7.0 // indirect
	golang.org/x/sys v0.5.0 // indirect
)
